managerID	yearID	teamID	lgID	inseason	G	W	L	rank	plyrMgr
sciosmi01m	2003	ANA	AL	1	162	77	85	3	N
brenlbo01m	2003	ARI	NL	1	162	84	78	3	N
coxbo01m	2003	ATL	NL	1	162	101	61	1	N
hargrmi01m	2003	BAL	AL	1	163	71	91	4	N
littlgr99m	2003	BOS	AL	1	162	95	67	2	N
manueje01m	2003	CHA	AL	1	162	86	76	2	N
bakerdu01m	2003	CHN	NL	1	162	88	74	1	N
boonebo01m	2003	CIN	NL	1	104	46	58	5	N
knighra01m	2003	CIN	NL	2	1	1	0	5	N
mileyda99m	2003	CIN	NL	3	57	22	35	5	N
wedgeer01m	2003	CLE	AL	1	162	68	94	4	N
hurdlcl01m	2003	COL	NL	1	162	74	88	4	N
trammal01m	2003	DET	AL	1	162	43	119	5	N
torboje01m	2003	FLO	NL	1	38	16	22	4	N
mckeoja99m	2003	FLO	NL	2	124	75	49	2	N
williji03m	2003	HOU	NL	1	162	87	75	2	N
penato01m	2003	KCA	AL	1	162	83	79	3	N
tracyji01m	2003	LAN	NL	1	162	85	77	2	N
yostne01m	2003	MIL	NL	1	162	68	94	6	N
gardero01m	2003	MIN	AL	1	162	90	72	1	N
robinfr02m	2003	MON	NL	1	162	83	79	4	N
torrejo01m	2003	NYA	AL	1	163	101	61	1	N
howear01m	2003	NYN	NL	1	161	66	95	5	N
machake01m	2003	OAK	AL	1	162	96	66	1	N
bowala01m	2003	PHI	NL	1	162	86	76	3	N
mcclell01m	2003	PIT	NL	1	162	75	87	4	N
bochybr01m	2003	SDN	NL	1	162	64	98	5	N
melvibo01m	2003	SEA	AL	1	162	93	69	2	N
aloufe01m	2003	SFN	NL	1	161	100	61	1	N
larusto01m	2003	SLN	NL	1	162	85	77	3	N
pinielo01m	2003	TBA	AL	1	162	63	99	5	N
showabu99m	2003	TEX	AL	1	162	71	91	4	N
toscaca99m	2003	TOR	AL	1	162	86	76	3	N
