Time of last updates to these files, Eastern Time

-rw-r--r--  1 sean 100961 Oct 10 23:15 data/2004/upload/2004_prelim.zip
-rw-r--r--  1 sean  84102 Oct 10 23:15 data/2004/upload/BATTING.txt
-rw-r--r--  1 sean 129112 Oct 10 23:15 data/2004/upload/FIELDING.txt
-rw-r--r--  1 sean   1370 Oct 10 23:15 data/2004/upload/MANAGERS.txt
-rw-r--r--  1 sean  34503 Oct 10 23:15 data/2004/upload/MASTER.txt
-rw-r--r--  1 sean  57532 Oct 10 23:15 data/2004/upload/PITCHING.txt
-rw-r--r--  1 sean  26938 Oct 10 23:15 data/2004/upload/SALARIES.txt
-rw-r--r--  1 sean   6401 Oct 10 23:15 data/2004/upload/TEAMS.txt
-rw-r--r--  1 sean     51 Oct 10 23:15 data/2004/upload/UPDATE.txt
